Case Study 1 - Beers and Breweries in USA
…
cleanData = fullData %>% filter(!is.na(ABV) & !is.na(IBU))

There are 1005 rows of data that do not have IBU value. We need a IBU data in order to make an analysis so we decided to drop the rows that are missing IBU and ABV data.

Median ABV and IBU per states

We want to look at the median values for each state. In order to get median for each states, we collecte the data grouping by state and summarize them. With the data we calculated, we draw a bar charts with median ABV and IBU of all states.

cleanData %>% group_by(State) %>% summarize(medianABV = median(ABV), medianIBU = median(IBU), count = n())

## `summarise()` ungrouping output (override with `.groups` argument)

## # A tibble: 50 x 4
##    State medianABV medianIBU count
##    <fct>     <dbl>     <dbl> <int>
##  1 " AK"    0.057       46      17
##  2 " AL"    0.06        43       9
##  3 " AR"    0.04        39       1
##  4 " AZ"    0.0575      20.5    24
##  5 " CA"    0.058       42     135
##  6 " CO"    0.065       40     146
##  7 " CT"    0.061       29       6
##  8 " DC"    0.059       47.5     4
##  9 " DE"    0.055       52       1
## 10 " FL"    0.062       55      37
## # … with 40 more rows
…
In median ABV bar chart, we can see it quite evenly spread out except for Arizona and Utah that it has significatly lower medians than others. We see that Maine and Colorado has much higher median ABV than other states. For median IBU bar chart, results come out to be distributed wider than median ABV. We see there is dramatic differences for each states. We found Maine and West Virgina have highest median IBU, and Kansas and Wisconsin have lowest median IBU.

Max ABV and IBU of state

In order to get the max ABV and IBU value, we followed two approaches. One is to get max values for each state by grouping state and summarizing each state. Another appropach is to get max values among all states.

cleanData %>% group_by(State) %>% summarize(maxABV = max(ABV), maxIBU = max(IBU))

## `summarise()` ungrouping output (override with `.groups` argument)

## # A tibble: 50 x 3
##    State maxABV maxIBU
##    <fct>  <dbl>  <int>
##  1 " AK"  0.065     71
##  2 " AL"  0.093    103
##  3 " AR"  0.04      39
##  4 " AZ"  0.095     99
##  5 " CA"  0.099    115
##  6 " CO"  0.099    104
##  7 " CT"  0.088     85
##  8 " DC"  0.092    115
##  9 " DE"  0.055     52
## 10 " FL"  0.082     82
## # … with 40 more rows
…
